<?xml version="1.0" encoding="utf-8"?>
<!-- Generator: Adobe Illustrator 23.0.3, SVG Export Plug-In . SVG Version: 6.00 Build 0)  -->
<svg version="1.1" id="Layer_1" xmlns="http://www.w3.org/2000/svg" xmlns:xlink="http://www.w3.org/1999/xlink" x="0px" y="0px"
	 viewBox="0 0 1366 768" style="enable-background:new 0 0 1366 768;" xml:space="preserve">
<style type="text/css">
	.st0{fill:#878E88;}
	.st1{fill:#F7CB15;}
	.st2{opacity:0.9;fill:#878E88;}
	.st3{fill:#131200;}
	.st4{font-family:'AndaleMono';}
	.st5{font-size:36px;}
</style>
<g>
	<path class="st0" d="M721,501c-14,5.9-306.2,21.8-407-25c-66.1-30.7,53.7-131.6,26.3-128.8c-13.7,1.4-44.8-10.1-49,9.6
		C253,537,127.1,348.5,105,346c-59.9-6.9-60.3-85.7-51-152c2-14,11.3-60,46-86c35.7-26.8,93.3-3,151,16.4
		c45.4,15.2,90.8,27.7,125.5,10.6c11.8-5.8,26.5-13.9,46.6-12.9c30.4,1.5,123.2-63.3,137-41.1c17.4,28-89,168-58.3,184.6
		C701,373,746.5,490.3,721,501z"/>
</g>
<path class="st1" d="M134.5,34.5c48.6-39.3,125.3-8.3,141-2c15.4,6.2,54.5,22.6,79,62c24.1,38.8,8,57.8,26,84
	c35.5,51.5,115.1,2.5,183,51c59.2,42.3,85.9,142,69,201c-5.1,17.7-16,38.4-16,73c0,29.8,8,44-1,59c-12.5,20.8-45.3,22.3-59,23
	c-57.1,2.7-119-27.1-159-76c-51-62.4-8.4-103.2-48-150c-61.2-72.3-181.1-10.6-234-84c-22.7-31.6-21-71.3-19-119
	C98.5,108.8,100.6,61.9,134.5,34.5z"/>
<path class="st0" d="M324.3,345.1"/>
<path class="st2" d="M571.2,250.5c-14.5-0.6-17.6-14-29.6-15.8c-25.5-4-57.8,49-51.9,55.8c3.1,3.6,13.8-9.6,33-9.5
	c26.6,0.1,53.5,25.6,49.9,38c-3.7,12.7-41.7,19.6-71.1,8.7c-14-5.2-18.4-11.6-29-10.3c-18.3,2.3-36.9,25.4-34,43
	c3.8,23.1,43.9,31.7,68.2,31.6c15.5-0.1,30.1-3.7,64.1-20.8c65.3-32.7,97.9-49.1,99.4-71.4c2.1-32-44.4-69.5-70.7-61.8
	C588.8,241,583.8,251,571.2,250.5z"/>
<text transform="matrix(1 0 0 1 366.082 249.2002)"><tspan x="0" y="0" class="st3 st4 st5">context</tspan><tspan x="0" y="43.2" class="st3 st4 st5">    - based</tspan><tspan x="0" y="86.4" class="st3 st4 st5"> </tspan><tspan x="0" y="129.6" class="st3 st4 st5">agriculture </tspan></text>
</svg>
